b01b73b59c03abe878f6526afa1753b79850f72bbcbaecd31e
1eff77e5d3a520dae18e8cb0647c1de7b757be968c0e7a7075
cc69ae633723f434e54bc6c13e2050ebb96781cdbc48c7fb4c
8d7a5439bfa1132794f55bcd03dc6b11569fe41dd8e19bc1f6
5f131e5cbc6bef45c864732518814904d67d8bbf08b438ab4d
cd7372a73df7137b5b627118d36e9c579b166b397a9a8d2825
bffadc98b55d6b70ba839dd9a251337798ad918803bc5928a2
a5e5aa5b51b2f34e643755a7158f792ae6d79430f7d10aff3f
a3f6f97f6e7ec0edb3d266a7c7696c2bfd9cf01fa34c7d10e0
83e570ffbfffb505b46ecb10c8a061d1c1952c73f6333c8454
2fe40170351bf5a99dc59e5e5bcbb20d36225cda37cfde5600
503bd20291565732c1b70bebf345968906dbdfdc7eb51bd0cb
c42324828485ed5d06f77c8afa95378c6592a8d6b7bb446733
f2ffc413030b0f5cfd0a3f6ac4b6c606747d831a5b0864b610
1aa3ed73d15c9cffc19c9f33bacea920606f5c375d55c451a0
b59d69336447ff3eb0ff1c747907449c5092dbd78ee189d587
554c231e5350607e37dfbf4b0c445a6e0897116ac4f6fbe761
1baab618eb9fd661ae989f842863518366194462ee586c28cb
a0eae01f78f87432951784f647dc673a72783d4e89995c9022
a9064bba92755cd1c6247a4879b691ac58c3a258a7772c9161
d6261592ba4e400045e6a8319342ac51ee317c11dc29c20008
df0a96805f64e6aaa72cdf3f19c01aaf65fbd0c3c8abccbdb8
00c08bb932f6861e3710b0b6758f6eb2c9192761ed6ada7650
73ce28e63c6518ee78875478caca8cfe0c29c95afba269cca6
0caa44111bf894bf04ccec4deee85a44c87b2e9f36c0cc6460
1e140d915564c2b59d21afcf4258e0b8ab7492a553e793c213
b969b5b051289e91328c35eaa835664ebad51de80d1afb5faf
96e1e4939d643b98af17440c542e9e0172b6fb2f31380861d3
31a2f8700a2c19f8199e01e76110d921152e248978a38cc8c9
16c93d814b4c69428f13d64a024daec1e25eb6833c80702525
3ac739080fb7e87ed92ddcf877d50ce32c4d76bbfe28d1e445
2c91fdef74f24c00e20f4dbe767652694a90d1670ce7fd7c0d
c2b594558daee4187f13d37e0e4e614e39e167979eaf4c8d3c
684740c3ef60eb1b0b8a925baec070feb454621c74023dc0ce
1da500ddbf2a144b9c2e2c9cbb198a56d6000f11baa2b867d1
c60e96360d5126ea4cc9887abd9594b5d783794c61265d1e81
cf42888aacd71273059baafa901f79d88cd1fb56c24963be94
ea383e1066649a5eb1a3d8ffc05864f889b77ffdc8d75d0e36
fa7fc549825cf7dd2d52f2907bc49f1bb39b2d89bb3a642018
6f5b07b141b62f3faa6badd790513532c4bc90c638a3aa3562
