c7b14943aeac0d90e22ffd1ddb3b12907927fc1aa9d8839f03
e1bda81c8d7aa01674a635b08e42354ed7cd417de45e7d72fb
882d8d0a8f50ba94620059d7c048c51851285682f64d8ee384
7756497994aaba1dded021834155660dbffa8ef1bc707ab9de
3c7def5116d26c5e834816a0835fadab44d7a07e3ca12eb9b9
b205d4f8eadc90d8bd11bbb2d9f0d764a2440bbeb0e456ea7f
74c54495240e06aa438fa484d32fd1ff6e664e13457c0f62f7
9e6284212588a587a14d5a2e87ab575b170e70f0641ca2ab51
cb6fff2d6cf23e3dadc6f6e4ad9261be64cd7ecd5a82fe51b8
5036dcd58098340174d44bb7447650f182e09f88839906dd49
00d7e59eb1f1f356a1ef3f1ccefb868d5a9e2ab85b195feceb
d75feb003faac7e87c4d9f099ddb9c68b76ce4fbb3af6ac889
44095665562a8a6971c81a976a04921c3343164820837ddf45
d59bfcd1c9a310ddf5a1b5f51cdb45daf1a9bf41c2750d03a8
10ca439256d30e0eae529e548cc41731900b1b2234329ceb6f
fd84a908287e9a5b371d0d058506a1b02d3770caa3edb0fbbd
de4634513940039c8a54f74f52c9867b2f414f042ca97c7317
2574a6ba61c63cd26db726f3b8559e0c629dfeb7318e670b10
b427b7878377df7017862d3b8026913af2a723ea66dad5d20f
f98d89700a1ddbd6ca2eec87ffd590c97297009d28b05a20a4
8d03443ad6a65f769ac2a52a20c0e3c4a69ab0d5be85b317ba
2715834276f6512a6d18d7f0c50410c85b879117fc06f2aea3
62ea80a119dd3d89ef08353b1f45075eb8f13e034f52d245c1
2547e2802e59898099b9cb3117a1cb7ffb2228889a4910dd6d
f96fe4b253a3b40c6a5b22068fd96adc5aedcd1f23a260ad46
aa001ba86142bbf121bdca0c7686a5214d896d972e802de412
2851ebe4cc86dcac2c19f858283edabb18dfe4d4fad6cec22f
b2eba11a1c291e2faa6b726c64ed2dbe04265a528442f1c7a2
761b865189f3ff5c1d7921c81d53ef29ab168cb942e610983c
c3b168ee2ff03e02d8cd7b0ae968d9e5d9ca1e13b5d3e059ea
f2c8b7a0dea58fe675b8dc40f9e1262e780f0dd3cb27116ca9
0be4fc766549c25545c95956157546057b412b7eb44d1c8ac7
5e65432048abfa728991bf603d43c5b14a2836c025c17fb1b5
f51fd2b5a0c154877325a751363e978c7aaa5e2eed2706cd2d
37822ad5af3908ab562e541f6df6eedc2bebd54503673b72c9
52eff87143cd13021ddb78563c6d56d48b3f9ebcc52a3e2adb
e9d1fe7ded347cbdffb33bfaae0cc8542074f842d111f59d98
83914cf0cfb6c9f9f857a47153e292e5c47455bdcd6e71434d
ae71e351dd0a2a0e9e56260da22db1a16a186fa19edae1386d
02ee7d49d961570e7525c7d3f7d126ab2a55c515786414a3cb
